<svg width="39" height="39" viewBox="0 0 39 39" fill="none" xmlns="http://www.w3.org/2000/svg">
<circle cx="19.5" cy="19.5" r="19.5" fill="#242424"/>
<circle cx="19.5" cy="19.5" r="19.5" fill="#8C9EFF"/>
<path d="M11.0143 27.6034C12.3294 27.6034 13.5598 27.0986 14.4507 26.2572L14.4931 26.2151C14.7052 26.0048 14.8749 25.8365 15.0446 25.5841L19.4992 20.7881L23.9539 25.6262C24.1236 25.8365 24.3357 26.0469 24.5054 26.2572L24.5478 26.2993C25.4387 27.1407 26.669 27.6455 27.9842 27.6455C30.7843 27.6455 33.0752 25.3737 33.0752 22.5971C33.0752 19.8205 30.7843 17.5487 27.9842 17.5487C26.0751 17.5487 24.3781 18.6005 23.5296 20.1991L21.7902 18.306L22.9781 17.0018C23.9539 16.0342 24.5902 14.7301 24.5902 13.2997C24.5902 10.5231 22.2993 8.2513 19.4992 8.2513C16.6992 8.2513 14.4083 10.5231 14.4083 13.2997C14.4083 14.7301 15.0446 16.0342 16.0204 16.9598L17.2083 18.2639L15.4689 20.1571C14.6204 18.6005 12.9234 17.5067 11.0143 17.5067C8.21424 17.5067 5.9233 19.7784 5.9233 22.5551C5.9233 25.3317 8.21424 27.6034 11.0143 27.6034ZM27.9842 20.8723C28.9176 20.8723 29.6812 21.6295 29.6812 22.5551C29.6812 23.4806 28.9176 24.2378 27.9842 24.2378C27.56 24.2378 27.1781 24.0696 26.8812 23.8172L26.5418 23.4806C26.3721 23.2282 26.2448 22.8916 26.2448 22.5551C26.2872 21.6295 27.0509 20.8723 27.9842 20.8723ZM19.4992 11.6169C20.4326 11.6169 21.1962 12.3741 21.1962 13.2997C21.1962 13.6362 21.1114 13.9728 20.8993 14.2252L20.6023 14.5618C20.3053 14.8142 19.9235 14.9825 19.4992 14.9825C19.075 14.9825 18.6932 14.8142 18.3962 14.5618L18.0992 14.2252C17.9295 13.9728 17.8023 13.6362 17.8023 13.2997C17.8023 12.3741 18.5659 11.6169 19.4992 11.6169ZM11.0143 20.8723C11.9476 20.8723 12.7113 21.6295 12.7113 22.5551C12.7113 22.8916 12.6264 23.2282 12.4143 23.4806L12.0749 23.8172C11.7779 24.0696 11.3961 24.2379 10.9719 24.2379C10.0385 24.2379 9.27486 23.4806 9.27486 22.5551C9.27486 21.6295 10.0809 20.8723 11.0143 20.8723Z" fill="#242424"/>
</svg>
